\relax 
\babel@aux{english}{}
\citation{ip}
\citation{gc}
\citation{ncbi}
\citation{wHDAC}
\citation{aHDAC}
\citation{gc}
\citation{aWD}
\citation{wWD}
\@writefile{toc}{\contentsline {section}{\numberline {1}Proteins}{2}}
\newlabel{Proteins}{{1}{2}}
\@writefile{toc}{\contentsline {subsection}{\numberline {1.1}Overview}{2}}
\@writefile{toc}{\contentsline {subsection}{\numberline {1.2}HDAC1 and HDAC2}{2}}
\@writefile{toc}{\contentsline {subsection}{\numberline {1.3}RBBP4 and RBBP7}{2}}
\citation{aS}
\citation{gc}
\citation{wSAP30}
\citation{gc}
\citation{gc}
\@writefile{toc}{\contentsline {subsection}{\numberline {1.4}SAP30}{3}}
\@writefile{toc}{\contentsline {subsection}{\numberline {1.5}SAP18}{3}}
\citation{gc}
\@writefile{toc}{\contentsline {subsection}{\numberline {1.6}Sin3}{4}}
\citation{blast1}
\citation{h}
\citation{wh}
\citation{st}
\citation{ws}
\@writefile{toc}{\contentsline {section}{\numberline {2}Tree Creation}{5}}
\newlabel{Tree Creation}{{2}{5}}
\@writefile{toc}{\contentsline {subsection}{\numberline {2.1}Blast}{5}}
\@writefile{toc}{\contentsline {subsection}{\numberline {2.2}HMMER}{5}}
\@writefile{toc}{\contentsline {subsection}{\numberline {2.3}SplitsTree}{5}}
\@writefile{toc}{\contentsline {section}{\numberline {3}Interpretion of Trees}{7}}
\newlabel{Interpretation of Trees}{{3}{7}}
\@writefile{toc}{\contentsline {subsection}{\numberline {3.1}MetazoaOri\_topo\_tree.png}{7}}
\@writefile{toc}{\contentsline {subsection}{\numberline {3.2}HDAC1}{7}}
\@writefile{toc}{\contentsline {subsection}{\numberline {3.3}HDAC2}{7}}
\@writefile{toc}{\contentsline {subsection}{\numberline {3.4}RBBP4}{7}}
\@writefile{toc}{\contentsline {subsection}{\numberline {3.5}RBBP7}{7}}
\@writefile{toc}{\contentsline {subsection}{\numberline {3.6}SAP18}{7}}
\@writefile{toc}{\contentsline {subsection}{\numberline {3.7}SAP30}{7}}
\@writefile{toc}{\contentsline {subsection}{\numberline {3.8}Sin3}{7}}
\bibcite{ip}{1}
\bibcite{gc}{2}
\bibcite{ncbi}{3}
\bibcite{wHDAC}{4}
\bibcite{aHDAC}{5}
\bibcite{aWD}{6}
\bibcite{wWD}{7}
\bibcite{aS}{8}
\bibcite{wSAP30}{9}
\bibcite{blast1}{10}
\bibcite{h}{11}
\bibcite{wh}{12}
\bibcite{st}{13}
\bibcite{ws}{14}
